{
    "extensions" : [
        {
            "file": "GetFPS.asar",
            "name": "Get FPS",
            "desc": "Add FPS counter",
            "author": "Tai Studio",
            "version": "1.3.0"
        },
        {
            "file": "Clock.asar",
            "name": "Clock",
            "desc": "Add Clock on Your Wallpaper",
            "author": "Tai Studio",
            "version": "1.3.0"
        },
        {
            "file": "Weather.asar",
            "name": "Weather",
            "desc": "Add Weather widget on Your Wallpaper",
            "author": "Tai Studio",
            "version": "1.0.0"
        }
    ]
}
